{
  "project_info": {
    "project_number": "340308521267",
    "firebase_url": "https://test-bb8d8-default-rtdb.firebaseio.com",
    "project_id": "test-bb8d8",
    "storage_bucket": "test-bb8d8.appspot.com"
  },
  "client": [
    {
      "client_info": {
        "mobilesdk_app_id": "1:340308521267:android:6f53abaf4dbfb586f60e46",
        "android_client_info": {
          "package_name": "com.platform"
        }
      },
      "oauth_client": [
        {
          "client_id": "340308521267-t3lrhl983g20bmjoh9is9sg3jj89c7dp.apps.googleusercontent.com",
          "client_type": 3
        }
      ],
      "api_key": [
        {
          "current_key": "AIzaSyCcLhcjzJQiBw05OYJMGbeg277LxlL9tTg"
        }
      ],
      "services": {
        "appinvite_service": {
          "other_platform_oauth_client": [
            {
              "client_id": "340308521267-t3lrhl983g20bmjoh9is9sg3jj89c7dp.apps.googleusercontent.com",
              "client_type": 3
            }
          ]
        }
      }
    }
  ],
  "configuration_version": "1"
}